<svg xmlns="http://www.w3.org/2000/svg" xmlns:xlink="http://www.w3.org/1999/xlink" viewBox="3444.545 7002.647 288.694 468.501">
  <defs>
    <style>
      .cls-1, .cls-4 {
        fill: #fff;
      }

      .cls-1, .cls-2, .cls-3, .cls-7 {
        stroke: #0b1b34;
        stroke-width: 2px;
      }

      .cls-10, .cls-2 {
        fill: none;
      }

      .cls-3 {
        fill: #ff5050;
      }

      .cls-5 {
        fill: #0b1b34;
      }

      .cls-6 {
        clip-path: url(#clip-path);
      }

      .cls-7 {
        fill: #ffd908;
      }

      .cls-8 {
        fill: #0b1a33;
      }

      .cls-9 {
        stroke: none;
      }
    </style>
    <clipPath id="clip-path">
      <path id="path" class="cls-1" d="M93.364,96.41l-.139-.277L91.977,88.92c5.548,3.19,21.776-4.993,26.075-6.38L117.5,63.4c-13.87.693-22.885,6.519-36.616.277-4.854,5.409-11.1,8.738-17.615,8.738-6.38,0-12.344-3.051-17.2-8.183-.139.139-.416.277-.555.416-.416.277-.971.555-1.387.832h0C32.476,71.722,18.051,80.044,10.7,91.972l11.928,10.4c6.1-4.022,9.293-6.519,14.563-9.848-6.38,21.221-6.241,43.69-6.38,60.195,0,.139.277,6.38.971,13.592h70.736l-.832-11.373C100.437,140.932,99.189,116.937,93.364,96.41Z" transform="translate(1223.449 247.058)"/>
    </clipPath>
  </defs>
  <g id="group-232" transform="translate(2100 6732)">
    <g id="group-46" transform="matrix(-0.961, 0.276, -0.276, -0.961, 2014.542, 833.394)">
      <g id="ellipse-9" class="cls-1" transform="translate(290 372)">
        <circle class="cls-9" cx="34" cy="34" r="34"/>
        <circle class="cls-10" cx="34" cy="34" r="33"/>
      </g>
      <g id="ellipse-9-2" data-name="ellipse-9" class="cls-2" transform="translate(352 434)">
        <circle class="cls-9" cx="8" cy="8" r="8"/>
        <circle class="cls-10" cx="8" cy="8" r="7"/>
      </g>
    </g>
    <g id="group-49" transform="translate(34)">
      <g id="group-48" transform="translate(496 -36.279)">
        <g id="group-47" transform="translate(896 412)">
          <path id="path-2" data-name="path" class="cls-1" d="M174.178,22.27c-6.65-1.556-13.442,3.254-15,10.612a14.377,14.377,0,0,0,3.113,12.593,57.619,57.619,0,0,1-15.706,26.317C127.769,89.2,100.037,89.9,88.718,89.337a6.745,6.745,0,0,1-1.132-.566h0c-.424-.283-.707-.424-1.132-.707h0l-.849-.424c-4.245-2.547-1.839-5.66-.283-7.358a8.087,8.087,0,0,0,1.132-.99h0C93.67,72.924,98.622,63.02,99.33,51.7a12.172,12.172,0,0,0,2.83-3.679c2.264-4.386,1.839-8.914-.99-10.47a4.023,4.023,0,0,0-3.4-.141C93.953,22.553,82.068,11.8,68.06,11.8c-14.149,0-26.034,10.895-30.138,26.034a4.867,4.867,0,0,0-3.962-.141c-2.83,1.415-3.254,6.084-.99,10.47a13.464,13.464,0,0,0,3.537,4.245c.849,11.6,6.084,21.79,13.866,27.874h0l.283.283c1.132.99,4.952,4.528-.283,7.641-.424.283-.99.566-1.415.849h0C29.575,99.524.569,121.739,0,146.5c-.707,33.392,37.212,54.474,38.91,55.323l2.264-10.187h44l23.063-1.273L107.112,174.8c-1.415-15-4.386-37.354-9.763-56.03h0l.424-9.9a99.114,99.114,0,0,0,13.583-1.273c13.866-2.122,31.977-10.895,45.136-23.2,9.338-8.631,14.857-21.79,18.111-35.939a14.138,14.138,0,0,0,8.631-10.187C184.79,31.043,180.828,23.827,174.178,22.27ZM35.517,183.712c-8.489-6.509-19.384-19.809-18.96-36.929.283-14.008,12.876-27.308,27.166-36.363C36.366,135.039,35.517,168.572,35.517,183.712Z" transform="translate(0.007 4.927)"/>
          <path id="path-77" class="cls-3" d="M-3510.07-7083.974l-.022.023c-38.626.425,5.235-16.556,5.235-16.556l2.547-2.264c.007.031.014.062.022.092,3.459-2.961,6.062-5.044,6.062-5.044h18.252l1.274,21.507s-17.913,2.3-30.186,2.3C-3508-7083.914-3509.067-7083.933-3510.07-7083.974Z" transform="translate(3550.002 7446.34)"/>
          <path id="path-78" class="cls-3" d="M-3497.56-7083.951l-.009-.028c-11.854-.091-28.432-2.235-28.432-2.235l1.274-21.507h17.686s5.994,4.978,11.761,10.456c10.349,4.822,24.991,13.328-.456,13.329C-3496.323-7083.937-3496.928-7083.941-3497.56-7083.951Z" transform="translate(3606.66 7445.633)"/>
          <path id="path-3" data-name="path" class="cls-4" d="M30.8,244.8" transform="translate(12.789 101.601)"/>
          <g id="group" transform="translate(40.262 338.971)">
            <path id="path-4" data-name="path" class="cls-4" d="M39.972,251.11h0a1.347,1.347,0,0,1-1.839.424l-8.348-4.811a1.347,1.347,0,0,1-.424-1.839h0a1.347,1.347,0,0,1,1.839-.424l8.348,4.811A1.347,1.347,0,0,1,39.972,251.11Z" transform="translate(-29.156 -238.596)"/>
            <path id="path-5" data-name="path" class="cls-4" d="M43.072,249.11h0a1.347,1.347,0,0,1-1.839.424l-8.348-4.811a1.347,1.347,0,0,1-.424-1.839h0a1.347,1.347,0,0,1,1.839-.424l8.348,4.811A1.453,1.453,0,0,1,43.072,249.11Z" transform="translate(-27.869 -239.426)"/>
            <path id="path-6" data-name="path" class="cls-4" d="M45.872,247.11h0a1.347,1.347,0,0,1-1.839.424l-8.348-4.811a1.347,1.347,0,0,1-.424-1.839h0a1.347,1.347,0,0,1,1.839-.424l8.348,4.811A1.347,1.347,0,0,1,45.872,247.11Z" transform="translate(-26.708 -240.256)"/>
          </g>
          <g id="group-2" data-name="group" transform="translate(92.916 338.405)">
            <path id="path-7" data-name="path" class="cls-4" d="M75.772,240.484h0a1.347,1.347,0,0,0-1.839-.424l-8.348,4.811a1.347,1.347,0,0,0-.424,1.839h0a1.347,1.347,0,0,0,1.839.424l8.348-4.811A1.347,1.347,0,0,0,75.772,240.484Z" transform="translate(-64.956 -239.856)"/>
            <path id="path-8" data-name="path" class="cls-4" d="M78.872,242.484h0a1.347,1.347,0,0,0-1.839-.424l-8.348,4.811a1.347,1.347,0,0,0-.424,1.839h0a1.347,1.347,0,0,0,1.839.424l8.348-4.811A1.453,1.453,0,0,0,78.872,242.484Z" transform="translate(-63.669 -239.026)"/>
            <path id="path-9" data-name="path" class="cls-4" d="M81.672,244.484h0a1.347,1.347,0,0,0-1.839-.424l-8.348,4.811a1.347,1.347,0,0,0-.424,1.839h0a1.347,1.347,0,0,0,1.839.424l8.348-4.811A1.347,1.347,0,0,0,81.672,244.484Z" transform="translate(-62.508 -238.196)"/>
          </g>
          <g id="group-3" data-name="group" transform="translate(15.149 89.736)">
            <path id="path-10" data-name="path" class="cls-1" d="M95.029,97.075l-.142-.283-1.273-7.358c5.66,3.254,22.214-5.094,26.6-6.509L119.648,63.4c-14.149.707-23.346,6.65-37.354.283C77.342,69.2,70.975,72.6,64.325,72.6c-6.509,0-12.593-3.113-17.545-8.348-.141.141-.424.283-.566.424-.424.283-.99.566-1.415.849h0C32.914,71.889,18.2,80.379,10.7,92.547l12.168,10.612c6.226-4.1,9.48-6.65,14.857-10.046-6.509,21.648-6.367,44.57-6.509,61.407,0,.141.283,6.509.99,13.866h72.16l-.849-11.6C102.245,142.494,100.971,118.016,95.029,97.075Z" transform="translate(-10.7 -63.4)"/>
          </g>
          <path id="path-11" data-name="path" class="cls-5" d="M27.484,40.617s-4.669-13.583,1.7-23.912c0,0,3.537,5.943,8.489,0S47.293-9.9,80.826,5.669c0,0-6.792,7.782-2.83,10.895,0,0,16.271,9.48,9.763,23.629,0,0-12.31-26.742-28.015-20.092S50.264,11.045,27.484,40.617Z" transform="translate(10.728 0.022)"/>
          <path id="path-12" data-name="path" class="cls-3" d="M43.02,281.662H61.273l3.254-115.457h-.283L71.6,282.37l16.413-1.727L98.2,137.624,25.9,137.2Z" transform="translate(10.756 56.957)"/>
        </g>
      </g>
    </g>
    <g id="group-46-2" data-name="group-46" transform="translate(1083 -74)">
      <g id="ellipse-9-3" data-name="ellipse-9" class="cls-1" transform="translate(290 372)">
        <circle class="cls-9" cx="34" cy="34" r="34"/>
        <circle class="cls-10" cx="34" cy="34" r="33"/>
      </g>
      <g id="ellipse-9-4" data-name="ellipse-9" class="cls-2" transform="translate(352 434)">
        <circle class="cls-9" cx="8" cy="8" r="8"/>
        <circle class="cls-10" cx="8" cy="8" r="7"/>
      </g>
    </g>
    <g id="group-46-3" data-name="group-46" transform="matrix(0.602, 0.799, -0.799, 0.602, 1632.645, -184.833)">
      <g id="ellipse-9-5" data-name="ellipse-9" class="cls-1" transform="translate(290 372)">
        <circle class="cls-9" cx="31.633" cy="31.633" r="31.633"/>
        <circle class="cls-10" cx="31.633" cy="31.633" r="30.633"/>
      </g>
      <g id="ellipse-9-6" data-name="ellipse-9" class="cls-2" transform="translate(347.683 429.683)">
        <circle class="cls-9" cx="7.443" cy="7.443" r="7.443"/>
        <circle class="cls-10" cx="7.443" cy="7.443" r="6.443"/>
      </g>
    </g>
    <g id="group-46-4" data-name="group-46" transform="translate(2010.655 40.961) rotate(93)">
      <g id="ellipse-9-7" data-name="ellipse-9" class="cls-1" transform="translate(290 372)">
        <circle class="cls-9" cx="34" cy="34" r="34"/>
        <circle class="cls-10" cx="34" cy="34" r="33"/>
      </g>
      <g id="ellipse-9-8" data-name="ellipse-9" class="cls-2" transform="translate(352 434)">
        <circle class="cls-9" cx="8" cy="8" r="8"/>
        <circle class="cls-10" cx="8" cy="8" r="7"/>
      </g>
    </g>
    <g id="group-46-5" data-name="group-46" transform="matrix(0.891, -0.454, 0.454, 0.891, 917.269, 199.16)">
      <g id="ellipse-9-9" data-name="ellipse-9" class="cls-1" transform="translate(290 372)">
        <circle class="cls-9" cx="34" cy="34" r="34"/>
        <circle class="cls-10" cx="34" cy="34" r="33"/>
      </g>
      <g id="ellipse-9-10" data-name="ellipse-9" class="cls-2" transform="translate(352 434)">
        <circle class="cls-9" cx="8" cy="8" r="8"/>
        <circle class="cls-10" cx="8" cy="8" r="7"/>
      </g>
    </g>
    <g id="group-17" transform="translate(2356.488 474) rotate(180)">
      <path id="path-10-2" data-name="path-10" class="cls-7" d="M0,19.167A10.725,10.725,0,0,1,.593,15.64l-.024-.012.13-.281a10.7,10.7,0,0,1,.633-1.366L6.487,2.863C7.171,1.154,8.465,0,9.949,0h1.193c1.616,0,3.007,1.369,3.63,3.335l5.85,11.533-.027,0A10.745,10.745,0,1,1,0,19.167Z" transform="translate(939 129.493)"/>
      <rect id="rectangle-6" class="cls-8" width="7.163" height="8.356" rx="3.581" transform="translate(946.163 124.388)"/>
      <rect id="rectangle-7" class="cls-8" width="2.388" height="5.765" rx="1.194" transform="translate(948.55 123)"/>
    </g>
    <g id="group-119" transform="translate(1569.1 513.105)">
      <circle id="ellipse" class="cls-5" cx="3.987" cy="3.987" r="3.987" transform="translate(18.23 15.821)"/>
      <path id="path-13" data-name="path" class="cls-5" d="M44.352,18.719a5.307,5.307,0,0,0-.985-1.755,8.915,8.915,0,0,0-1.2-1.183,14.87,14.87,0,0,0-2.438-1.588,22.173,22.173,0,0,0-3.137-1.334c-.461-.159-.945-.31-1.438-.453.079-.334.159-.659.222-.977a22.347,22.347,0,0,0,.492-4.479,11.436,11.436,0,0,0-.6-3.915A5.8,5.8,0,0,0,34.5,1.557,3.9,3.9,0,0,0,33.328.5a3.57,3.57,0,0,0-.977-.381A4.7,4.7,0,0,0,31.287,0,6.831,6.831,0,0,0,29.46.27,12.552,12.552,0,0,0,26.5,1.588,21.893,21.893,0,0,0,23.345,3.9c-.373.318-.739.659-1.112,1.017-.246-.238-.492-.461-.739-.683a20.82,20.82,0,0,0-4.424-3.089A11.9,11.9,0,0,0,15.014.326,7.238,7.238,0,0,0,13.1.032,4.549,4.549,0,0,0,12,.159a3.762,3.762,0,0,0-1,.4A3.935,3.935,0,0,0,9.859,1.588a5.2,5.2,0,0,0-.6,1.048,8.409,8.409,0,0,0-.548,1.9A13.47,13.47,0,0,0,8.541,6.79,21.749,21.749,0,0,0,8.97,10.9q.143.727.334,1.477c-.572.159-1.12.334-1.652.516a22.047,22.047,0,0,0-3.129,1.358,15.506,15.506,0,0,0-1.874,1.183A8.334,8.334,0,0,0,.67,17.457a5.047,5.047,0,0,0-.564,1.136A3.673,3.673,0,0,0-.1,19.8a3.822,3.822,0,0,0,.175,1.112,5.53,5.53,0,0,0,1,1.811A10.9,10.9,0,0,0,3.887,25.1a20.552,20.552,0,0,0,4.17,1.922c.389.135.794.262,1.207.381-.135.54-.254,1.072-.349,1.6a21.263,21.263,0,0,0-.4,3.884,10.926,10.926,0,0,0,.588,3.8,5.656,5.656,0,0,0,.77,1.438,3.761,3.761,0,0,0,1.152,1.032,3.866,3.866,0,0,0,1.017.4,4.681,4.681,0,0,0,1.112.127,7.22,7.22,0,0,0,1.874-.27A12.748,12.748,0,0,0,18.1,38.066a21.06,21.06,0,0,0,3.256-2.375q.465-.405.929-.858c.405.389.8.754,1.207,1.1A19.394,19.394,0,0,0,27.57,38.7a10.738,10.738,0,0,0,1.906.731,6.8,6.8,0,0,0,1.787.262,4.484,4.484,0,0,0,1.088-.127,3.711,3.711,0,0,0,.993-.4A4.007,4.007,0,0,0,34.527,38.1a5.255,5.255,0,0,0,.627-1.1,8.629,8.629,0,0,0,.588-2.009,14.158,14.158,0,0,0,.2-2.4,21.828,21.828,0,0,0-.429-4.114c-.079-.389-.167-.786-.27-1.191.278-.079.556-.167.826-.262a22.914,22.914,0,0,0,3.4-1.414,15.986,15.986,0,0,0,2.041-1.247,9.156,9.156,0,0,0,2.16-2.121,5.447,5.447,0,0,0,.619-1.183,3.693,3.693,0,0,0,.222-1.271A3.138,3.138,0,0,0,44.352,18.719ZM28.364,2.748a9.226,9.226,0,0,1,1.612-.635,5.054,5.054,0,0,1,1.31-.2,2.914,2.914,0,0,1,.619.064,1.56,1.56,0,0,1,.469.183,1.993,1.993,0,0,1,.6.548,3.372,3.372,0,0,1,.4.7A6.611,6.611,0,0,1,33.8,4.932a11.979,11.979,0,0,1,.159,2.025,20.6,20.6,0,0,1-.453,4.1c-.064.294-.127.588-.2.89-1.056-.246-2.168-.453-3.32-.627-.858-.127-1.739-.23-2.645-.318-.461-.651-.929-1.287-1.4-1.9-.786-1.017-1.573-1.954-2.375-2.819.342-.334.683-.643,1.025-.937A18.405,18.405,0,0,1,28.364,2.748Zm3.01,14.868c-.405-.77-.834-1.549-1.287-2.319-.437-.762-.9-1.509-1.358-2.232.334.04.659.087.977.135,1.08.159,2.113.357,3.089.58-.326,1.04-.715,2.113-1.167,3.209C31.549,17.195,31.462,17.4,31.374,17.616Zm.365,5.226c.445,1.064.826,2.1,1.152,3.113-1.1.246-2.263.461-3.487.627-.222.032-.453.056-.675.087.469-.739.921-1.493,1.366-2.271s.882-1.573,1.295-2.367C31.509,22.3,31.629,22.571,31.74,22.841Zm-3.3.6q-1.036,1.8-2.136,3.455c-1.326.1-2.7.143-4.09.143-1.374,0-2.724-.04-4.043-.127-.754-1.1-1.485-2.256-2.184-3.455h0c-.691-1.2-1.334-2.406-1.906-3.6.572-1.191,1.207-2.4,1.9-3.6h0c.691-1.2,1.422-2.351,2.16-3.447,1.318-.1,2.684-.151,4.066-.151s2.748.056,4.074.151c.739,1.1,1.461,2.24,2.152,3.431s1.334,2.391,1.922,3.582C29.778,21.031,29.135,22.238,28.444,23.437ZM22.289,32.1c-.675-.723-1.342-1.509-2.017-2.351-.222-.286-.453-.572-.675-.866.858.032,1.731.056,2.613.056.905,0,1.8-.024,2.692-.064-.175.238-.357.477-.532.707C23.687,30.5,22.988,31.339,22.289,32.1Zm-9.2-10.007q.6,1.156,1.263,2.311l.826-.477-.826.477c.453.786.921,1.549,1.4,2.3-.3-.032-.6-.071-.89-.111-1.128-.151-2.208-.334-3.224-.556.294-.945.635-1.922,1.032-2.923C12.8,22.778,12.941,22.436,13.084,22.095Zm-.381-5.4c-.4-1.009-.747-1.993-1.04-2.947q1.406-.31,2.954-.548c.357-.056.723-.1,1.1-.151-.469.731-.921,1.477-1.366,2.248l.826.477-.826-.477c-.445.77-.866,1.541-1.263,2.3Q12.881,17.159,12.7,16.694Zm9.538-9.046c.739.794,1.477,1.676,2.2,2.613.143.183.286.373.421.556-.874-.04-1.755-.064-2.645-.064s-1.763.024-2.629.064c.2-.262.405-.524.6-.786Q21.217,8.756,22.241,7.648Zm-11.4,2.891a19.629,19.629,0,0,1-.4-3.741A9.288,9.288,0,0,1,10.9,3.685a3.6,3.6,0,0,1,.492-.945,1.9,1.9,0,0,1,.564-.524,1.989,1.989,0,0,1,.492-.191,2.679,2.679,0,0,1,.651-.071,5.452,5.452,0,0,1,1.4.214,11.136,11.136,0,0,1,2.669,1.215,21.383,21.383,0,0,1,3.066,2.287q.334.3.667.619c-.739.794-1.477,1.652-2.2,2.565-.54.683-1.08,1.4-1.6,2.136q-1.418.131-2.764.334c-1.1.167-2.168.365-3.185.6C11.027,11.445,10.932,10.984,10.844,10.539ZM8.684,25.224a20.631,20.631,0,0,1-3.01-1.295,13.874,13.874,0,0,1-1.731-1.1A7.136,7.136,0,0,1,2.3,21.174a2.935,2.935,0,0,1-.373-.739,1.9,1.9,0,0,1-.111-.627,1.789,1.789,0,0,1,.079-.524,3.291,3.291,0,0,1,.612-1.1,6.964,6.964,0,0,1,.905-.913,12.217,12.217,0,0,1,2.049-1.358A19.515,19.515,0,0,1,8.271,14.7c.484-.167,1-.334,1.533-.484.318,1.032.691,2.1,1.12,3.177.318.81.675,1.628,1.056,2.454-.4.866-.762,1.715-1.1,2.565-.421,1.072-.794,2.128-1.1,3.153C9.407,25.462,9.041,25.351,8.684,25.224Zm7.537,11.7a9.017,9.017,0,0,1-1.684.643,5.2,5.2,0,0,1-1.374.206,2.886,2.886,0,0,1-.675-.071,1.606,1.606,0,0,1-.5-.2,1.988,1.988,0,0,1-.58-.532,3.522,3.522,0,0,1-.389-.675,6.551,6.551,0,0,1-.429-1.461,11.084,11.084,0,0,1-.159-1.946,18.938,18.938,0,0,1,.357-3.526c.087-.477.2-.977.326-1.477,1.1.246,2.271.445,3.487.6.818.111,1.668.191,2.526.262.54.762,1.1,1.5,1.652,2.2.723.905,1.445,1.747,2.176,2.534-.286.278-.572.54-.85.786A18.4,18.4,0,0,1,16.221,36.923Zm17.433-8.053a19.5,19.5,0,0,1,.4,3.741,9.822,9.822,0,0,1-.5,3.328,4.091,4.091,0,0,1-.532,1.025,2.1,2.1,0,0,1-.612.564,2.054,2.054,0,0,1-.484.191,2.657,2.657,0,0,1-.643.071A5.04,5.04,0,0,1,30,37.6a10.549,10.549,0,0,1-2.438-1.072,18.972,18.972,0,0,1-2.8-2.033q-.56-.477-1.12-1.025c.762-.834,1.525-1.747,2.263-2.716.5-.651.993-1.334,1.477-2.033.778-.071,1.541-.151,2.287-.254,1.31-.175,2.565-.405,3.749-.675C33.5,28.155,33.582,28.52,33.654,28.869Zm8.871-8.506a3.517,3.517,0,0,1-.691,1.175,7.453,7.453,0,0,1-1.009.977,13.383,13.383,0,0,1-2.271,1.445,21.731,21.731,0,0,1-3.082,1.271c-.246.079-.492.159-.747.238q-.524-1.644-1.239-3.359-.477-1.132-1.025-2.287c.326-.707.635-1.414.921-2.113.484-1.175.9-2.335,1.247-3.463.461.135.905.27,1.326.421a20.492,20.492,0,0,1,2.907,1.239,12.46,12.46,0,0,1,1.676,1.04,6.744,6.744,0,0,1,1.588,1.565,3.3,3.3,0,0,1,.365.7,1.906,1.906,0,0,1,.111.6A1.408,1.408,0,0,1,42.525,20.363Z" transform="translate(0)"/>
    </g>
    <path id="path-84" class="cls-5" d="M0,0,2.85,31.977l12.789,3.549,12.823-3.558L31.32,0ZM25.379,7.59,25.2,9.577l-.078.881H10.112l.363,4.015H24.766l-.095,1.054-.924,10.319-.06.665-8.022,2.228h0l-.017.009L7.616,26.519l-.553-6.157H11l.276,3.126,4.369,1.183h0l4.369-1.183.458-5.086H6.882L5.924,7.59,5.829,6.537H25.474Z" transform="translate(1572 327)"/>
    <g id="group-120" transform="translate(1374.5 397.262)">
      <path id="path-14" data-name="path" class="cls-5" d="M70.43,58.644h3.492L70.45,51.4,67.4,58.644Z" transform="translate(-53.874 -41.085)"/>
      <path id="path-15" data-name="path" class="cls-5" d="M16.6,0,0,5.84,2.629,27.573l13.987,7.686,14.068-7.786L33.313,5.739ZM23.62,25.827,21.372,20.61H12.181l-2.067,5.137-3.833.08L16.556,2.99h0l10.736,22.9Z"/>
    </g>
    <g id="group-122" transform="translate(1487.113 299)">
      <path id="path1948_2_" class="cls-5" d="M15.617,0a20.541,20.541,0,0,0-3.66.315C8.726.886,8.126,2.087,8.126,4.289V7.205h7.663v.972H5.238a4.818,4.818,0,0,0-4.8,3.889,14.1,14.1,0,0,0,0,7.777c.543,2.259,1.859,3.889,4.06,3.889H7.125V20.243a4.9,4.9,0,0,1,4.8-4.775h7.663a3.844,3.844,0,0,0,3.831-3.889V4.289A4.251,4.251,0,0,0,19.591.315,23.05,23.05,0,0,0,15.617,0ZM11.471,2.345A1.44,1.44,0,0,1,12.9,3.8a1.459,1.459,0,0,1-1.43,1.458,1.458,1.458,0,0,1,0-2.916Z"/>
      <path id="path1950_2_" class="cls-5" d="M44.969,28.7v3.4a4.921,4.921,0,0,1-4.8,4.861H32.531A3.919,3.919,0,0,0,28.7,40.852v7.291c0,2.087,1.8,3.288,3.831,3.889a12.939,12.939,0,0,0,7.663,0c1.944-.572,3.831-1.687,3.831-3.889V45.226H36.363v-.972H47.857c2.23,0,3.059-1.544,3.831-3.889a13.066,13.066,0,0,0,0-7.777c-.543-2.23-1.6-3.889-3.831-3.889ZM40.68,47.171a1.44,1.44,0,0,1,1.43,1.458,1.459,1.459,0,0,1-1.43,1.458,1.44,1.44,0,0,1-1.43-1.458A1.422,1.422,0,0,1,40.68,47.171Z" transform="translate(-20.574 -20.494)"/>
    </g>
    <g id="group-188" transform="translate(-3 2)">
      <g id="ellipse-25" class="cls-1" transform="translate(1364 462)">
        <circle class="cls-9" cx="29" cy="29" r="29"/>
        <circle class="cls-10" cx="29" cy="29" r="28"/>
      </g>
      <g id="group-121" transform="translate(1371.633 479.423)">
        <path id="path-16" data-name="path" class="cls-5" d="M480.25,133.9h-1.51l-.84,4.312h1.228a3.461,3.461,0,0,0,2.1-.52,2.824,2.824,0,0,0,.909-1.749,1.864,1.864,0,0,0-.169-1.592A2.35,2.35,0,0,0,480.25,133.9Z" transform="translate(-447.948 -125.508)"/>
        <path id="path-17" data-name="path" class="cls-5" d="M170.45,133.9h-1.51l-.84,4.312h1.228a3.461,3.461,0,0,0,2.1-.52,2.824,2.824,0,0,0,.909-1.749,1.864,1.864,0,0,0-.169-1.592A2.35,2.35,0,0,0,170.45,133.9Z" transform="translate(-157.565 -125.508)"/>
        <path id="path-18" data-name="path" class="cls-5" d="M21.66,0C9.7,0,0,5.1,0,11.394S9.7,22.788,21.66,22.788s21.66-5.1,21.66-11.394S33.625,0,21.66,0ZM16.17,13.619a4.68,4.68,0,0,1-1.742,1.047,7.827,7.827,0,0,1-2.394.307H10.1l-.552,2.845a.23.23,0,0,1-.232.188H6.825a.232.232,0,0,1-.182-.088.243.243,0,0,1-.05-.194L8.812,6.3a.23.23,0,0,1,.232-.188h4.782a4.21,4.21,0,0,1,3.328,1.216,3.794,3.794,0,0,1,.652,3.366,5.4,5.4,0,0,1-.577,1.6A5.289,5.289,0,0,1,16.17,13.619Zm7.157,1.272a.243.243,0,0,1-.05-.194l.984-5.052c.094-.483.069-.827-.063-.971-.081-.088-.332-.238-1.065-.238h-1.78l-1.235,6.349a.23.23,0,0,1-.232.188H17.417a.232.232,0,0,1-.182-.088.243.243,0,0,1-.05-.194L19.4,3.272a.23.23,0,0,1,.232-.188h2.469a.232.232,0,0,1,.182.088.243.243,0,0,1,.05.194L21.8,6.123h1.912a4.45,4.45,0,0,1,3.021.783,2.612,2.612,0,0,1,.545,2.563l-1.034,5.315a.23.23,0,0,1-.232.188H23.509A.247.247,0,0,1,23.327,14.891ZM37.222,10.7a5.223,5.223,0,0,1-1.636,2.927,4.68,4.68,0,0,1-1.742,1.047,7.827,7.827,0,0,1-2.394.307H29.513l-.552,2.845a.23.23,0,0,1-.232.188H26.242a.232.232,0,0,1-.182-.088.243.243,0,0,1-.05-.194L28.228,6.311a.23.23,0,0,1,.232-.188h4.782A4.21,4.21,0,0,1,36.57,7.339,3.776,3.776,0,0,1,37.222,10.7Z"/>
      </g>
      <g id="ellipse-9-11" data-name="ellipse-9" class="cls-2" transform="matrix(0.891, -0.454, 0.454, 0.891, 1421.935, 464.052)">
        <circle class="cls-9" cx="8" cy="8" r="8"/>
        <circle class="cls-10" cx="8" cy="8" r="7"/>
      </g>
    </g>
  </g>
</svg>
