<?xml version="1.0" encoding="utf-8"?>
<!-- Generator: Adobe Illustrator 19.2.1, SVG Export Plug-In . SVG Version: 6.00 Build 0)  -->
<svg version="1.1" id="Layer_1" xmlns="http://www.w3.org/2000/svg" xmlns:xlink="http://www.w3.org/1999/xlink" x="0px" y="0px"
	 width="22px" height="15px" viewBox="0 0 22 15" enable-background="new 0 0 22 15" xml:space="preserve">
<g>
	<polygon fill="#2857A3" points="11.505,9.369 22,1.473 22,0 0,0 0,1.43 	"/>
	<polygon fill="#2857A3" points="11.557,11.849 0,3.874 0,15 22,15 22,3.993 	"/>
</g>
</svg>
